9
21
---------|@|---------
|                   |
| &                 |
|                   |
|                   |
|#                 #|
|                   |
|[H] [P] [S] [Q] [F]|
---------------------